{
  "results": [
    {
      "vote_count": 1815,
      "id": 429617,
      "video": false,
      "vote_average": 7.8,
      "title": "Spider-Man: Far from Home",
      "popularity": 461.454,
      "poster_path": "\/rjbNpRMoVvqHmhmksbokcyCr7wn.jpg",
      "original_language": "en",
      "original_title": "Spider-Man: Far from Home",
      "genre_ids": [
        28,
        12,
        878
      ],
      "backdrop_path": "\/dihW2yTsvQlust7mSuAqJDtqW7k.jpg",
      "adult": false,
      "overview": "Peter Parker and his friends go on a summer trip to Europe. However, they will hardly be able to rest - Peter will have to agree to help Nick Fury uncover the mystery of creatures that cause natural disasters and destruction throughout the continent.",
      "release_date": "2019-06-28"
    }
  ],
  "page": 1,
  "total_results": 939,
  "dates": {
    "maximum": "2019-07-15",
    "minimum": "2019-05-28"
  },
  "total_pages": 47
}